{"failedCount":0,"prefixedPath":"classpath:karateapi\/usersDetails.feature","packageQualifiedName":"karateapi.usersDetails","loopIndex":-1,"relativePath":"karateapi\/usersDetails.feature","scenarioResults":[{"sectionIndex":0,"stepResults":[{"result":{"nanos":838000,"startTime":1708317161257,"endTime":1708317161258,"millis":0.838,"status":"passed"},"step":{"line":4,"prefix":"Given","index":0,"text":"url 'https:\/\/reqres.in\/api\/users\/4'"}},{"result":{"nanos":704988100,"startTime":1708317161258,"endTime":1708317161963,"millis":704.9881,"status":"passed"},"step":{"line":5,"prefix":"When","index":1,"text":"method GET"},"stepLog":"22:32:41.262 request:\n1 > GET https:\/\/reqres.in\/api\/users\/4\n1 > Host: reqres.in\n1 > Connection: Keep-Alive\n1 > User-Agent: Apache-HttpClient\/4.5.11 (Java\/17.0.9)\n1 > Accept-Encoding: gzip,deflate\n\n\n22:32:41.961 response time in milliseconds: 695\n1 < 200\n1 < Date: Mon, 19 Feb 2024 04:32:41 GMT\n1 < Content-Type: application\/json; charset=utf-8\n1 < Transfer-Encoding: chunked\n1 < Connection: keep-alive\n1 < Report-To: {\"group\":\"heroku-nel\",\"max_age\":3600,\"endpoints\":[{\"url\":\"https:\/\/nel.heroku.com\/reports?ts=1708317161&sid=c4c9725f-1ab0-44d8-820f-430df2718e11&s=%2BoDJf1jNRANZAKRvkLUpBbmohXiyfHx6osBiI4slCR8%3D\"}]}\n1 < Reporting-Endpoints: heroku-nel=https:\/\/nel.heroku.com\/reports?ts=1708317161&sid=c4c9725f-1ab0-44d8-820f-430df2718e11&s=%2BoDJf1jNRANZAKRvkLUpBbmohXiyfHx6osBiI4slCR8%3D\n1 < Nel: {\"report_to\":\"heroku-nel\",\"max_age\":3600,\"success_fraction\":0.005,\"failure_fraction\":0.05,\"response_headers\":[\"Via\"]}\n1 < X-Powered-By: Express\n1 < Access-Control-Allow-Origin: *\n1 < Etag: W\/\"110-Xdg3LtI+q2zMxihHlfeIZQo\/bvY\"\n1 < Via: 1.1 vegur\n1 < Cache-Control: max-age=14400\n1 < CF-Cache-Status: MISS\n1 < Vary: Accept-Encoding\n1 < Server: cloudflare\n1 < CF-RAY: 857bc9907ec22310-ORD\n{\"data\":{\"id\":4,\"email\":\"eve.holt@reqres.in\",\"first_name\":\"Eve\",\"last_name\":\"Holt\",\"avatar\":\"https:\/\/reqres.in\/img\/faces\/4-image.jpg\"},\"support\":{\"url\":\"https:\/\/reqres.in\/#support-heading\",\"text\":\"To keep ReqRes free, contributions towards server costs are appreciated!\"}}\n\n"},{"result":{"nanos":11800,"startTime":1708317161963,"endTime":1708317161963,"millis":0.0118,"status":"passed"},"step":{"line":6,"prefix":"Then","index":2,"text":"status 200"}},{"result":{"nanos":44343000,"startTime":1708317161963,"endTime":1708317162007,"millis":44.343,"status":"passed"},"step":{"line":7,"prefix":"*","index":3,"text":"match response.data.id == 4"}},{"result":{"nanos":1813600,"startTime":1708317162008,"endTime":1708317162010,"millis":1.8136,"status":"passed"},"step":{"line":8,"prefix":"*","index":4,"text":"match response.data.email == 'eve.holt@reqres.in'"}},{"result":{"nanos":31049600,"startTime":1708317162010,"endTime":1708317162041,"millis":31.0496,"status":"passed"},"step":{"comments":["#We are printing the Response of the API using the print keyword#"],"line":10,"prefix":"Then","index":5,"text":"print response"},"stepLog":"22:32:42.041 [print] {\n  \"data\": {\n    \"id\": 4,\n    \"email\": \"eve.holt@reqres.in\",\n    \"first_name\": \"Eve\",\n    \"last_name\": \"Holt\",\n    \"avatar\": \"https:\/\/reqres.in\/img\/faces\/4-image.jpg\"\n  },\n  \"support\": {\n    \"url\": \"https:\/\/reqres.in\/#support-heading\",\n    \"text\": \"To keep ReqRes free, contributions towards server costs are appreciated!\"\n  }\n}\n \n"}],"executorName":"main","line":2,"name":"testing the get one User Details","description":"","durationMillis":783.0441,"startTime":1708317161257,"failed":false,"refId":"[1:2]","endTime":1708317162041,"exampleIndex":-1},{"sectionIndex":1,"stepResults":[{"result":{"nanos":516500,"startTime":1708317162055,"endTime":1708317162056,"millis":0.5165,"status":"passed"},"step":{"line":13,"prefix":"Given","index":0,"text":"url 'https:\/\/reqres.in\/api\/users'"}},{"result":{"nanos":90107600,"startTime":1708317162055,"endTime":1708317162145,"millis":90.1076,"status":"passed"},"step":{"line":14,"prefix":"When","index":1,"text":"method GET"},"stepLog":"22:32:42.056 request:\n1 > GET https:\/\/reqres.in\/api\/users\n1 > Host: reqres.in\n1 > Connection: Keep-Alive\n1 > User-Agent: Apache-HttpClient\/4.5.11 (Java\/17.0.9)\n1 > Accept-Encoding: gzip,deflate\n\n\n22:32:42.144 response time in milliseconds: 85\n1 < 200\n1 < Date: Mon, 19 Feb 2024 04:32:41 GMT\n1 < Content-Type: application\/json; charset=utf-8\n1 < Transfer-Encoding: chunked\n1 < Connection: keep-alive\n1 < Report-To: {\"group\":\"heroku-nel\",\"max_age\":3600,\"endpoints\":[{\"url\":\"https:\/\/nel.heroku.com\/reports?ts=1708305939&sid=c4c9725f-1ab0-44d8-820f-430df2718e11&s=qqDZrR27mM75VBdJqm9P%2BcLZhPnP%2BFwf6vtPBUc1XXI%3D\"}]}\n1 < Reporting-Endpoints: heroku-nel=https:\/\/nel.heroku.com\/reports?ts=1708305939&sid=c4c9725f-1ab0-44d8-820f-430df2718e11&s=qqDZrR27mM75VBdJqm9P%2BcLZhPnP%2BFwf6vtPBUc1XXI%3D\n1 < Nel: {\"report_to\":\"heroku-nel\",\"max_age\":3600,\"success_fraction\":0.005,\"failure_fraction\":0.05,\"response_headers\":[\"Via\"]}\n1 < X-Powered-By: Express\n1 < Access-Control-Allow-Origin: *\n1 < Etag: W\/\"3e4-2RLXvr5wTg9YQ6aH95CkYoFNuO8\"\n1 < Via: 1.1 vegur\n1 < Cache-Control: max-age=14400\n1 < CF-Cache-Status: HIT\n1 < Age: 1919\n1 < Vary: Accept-Encoding\n1 < Server: cloudflare\n1 < CF-RAY: 857bc9932a190164-ORD\n{\"page\":1,\"per_page\":6,\"total\":12,\"total_pages\":2,\"data\":[{\"id\":1,\"email\":\"george.bluth@reqres.in\",\"first_name\":\"George\",\"last_name\":\"Bluth\",\"avatar\":\"https:\/\/reqres.in\/img\/faces\/1-image.jpg\"},{\"id\":2,\"email\":\"janet.weaver@reqres.in\",\"first_name\":\"Janet\",\"last_name\":\"Weaver\",\"avatar\":\"https:\/\/reqres.in\/img\/faces\/2-image.jpg\"},{\"id\":3,\"email\":\"emma.wong@reqres.in\",\"first_name\":\"Emma\",\"last_name\":\"Wong\",\"avatar\":\"https:\/\/reqres.in\/img\/faces\/3-image.jpg\"},{\"id\":4,\"email\":\"eve.holt@reqres.in\",\"first_name\":\"Eve\",\"last_name\":\"Holt\",\"avatar\":\"https:\/\/reqres.in\/img\/faces\/4-image.jpg\"},{\"id\":5,\"email\":\"charles.morris@reqres.in\",\"first_name\":\"Charles\",\"last_name\":\"Morris\",\"avatar\":\"https:\/\/reqres.in\/img\/faces\/5-image.jpg\"},{\"id\":6,\"email\":\"tracey.ramos@reqres.in\",\"first_name\":\"Tracey\",\"last_name\":\"Ramos\",\"avatar\":\"https:\/\/reqres.in\/img\/faces\/6-image.jpg\"}],\"support\":{\"url\":\"https:\/\/reqres.in\/#support-heading\",\"text\":\"To keep ReqRes free, contributions towards server costs are appreciated!\"}}\n\n"},{"result":{"nanos":14700,"startTime":1708317162146,"endTime":1708317162146,"millis":0.0147,"status":"passed"},"step":{"line":15,"prefix":"Then","index":2,"text":"status 200"}},{"result":{"nanos":1616000,"startTime":1708317162146,"endTime":1708317162148,"millis":1.616,"status":"passed"},"step":{"line":16,"prefix":"*","index":3,"text":"match response.per_page == 6"}},{"result":{"nanos":3102500,"startTime":1708317162148,"endTime":1708317162151,"millis":3.1025,"status":"passed"},"step":{"line":17,"prefix":"*","index":4,"text":"match response.data[0].id == 1"}},{"result":{"nanos":1498100,"startTime":1708317162151,"endTime":1708317162152,"millis":1.4981,"status":"passed"},"step":{"line":18,"prefix":"*","index":5,"text":"match response.data[0].email == \"george.bluth@reqres.in\""}},{"result":{"nanos":3269400,"startTime":1708317162152,"endTime":1708317162155,"millis":3.2694,"status":"passed"},"step":{"line":19,"prefix":"*","index":6,"text":"match response.data[*].id contains [1,2,3,4,5,6]"}},{"result":{"nanos":21096200,"startTime":1708317162156,"endTime":1708317162177,"millis":21.0962,"status":"passed"},"step":{"comments":["#Reading the file ExpectedOutput.json and storing same response in variable expectedResult"],"line":22,"prefix":"Given","index":7,"text":"expectedResult=read('.\/users.json')"}},{"result":{"nanos":1541200,"startTime":1708317162177,"endTime":1708317162179,"millis":1.5412,"status":"passed"},"step":{"comments":["#Asserting the Actual Response with the Expected Response"],"line":24,"prefix":"And","index":8,"text":"match response == expectedResult"}}],"executorName":"main","line":12,"name":"testing the get ALL User Details","description":"","durationMillis":122.7622,"startTime":1708317162054,"failed":false,"refId":"[2:12]","endTime":1708317162179,"exampleIndex":-1}],"callDepth":0,"name":"fetching User Details","description":"","resultDate":"2024-02-18 10:32:42 PM","durationMillis":905.8063,"passedCount":2}