{"failedCount":0,"prefixedPath":"classpath:karateapi\/userDetails.feature","packageQualifiedName":"karateapi.userDetails","loopIndex":-1,"relativePath":"karateapi\/userDetails.feature","scenarioResults":[{"sectionIndex":0,"stepResults":[{"result":{"nanos":796100,"startTime":1707968627744,"endTime":1707968627745,"millis":0.7961,"status":"passed"},"step":{"line":4,"prefix":"Given","index":0,"text":"url 'https:\/\/reqres.in\/api\/users\/2'"}},{"result":{"nanos":95713600,"startTime":1707968627745,"endTime":1707968627841,"millis":95.7136,"status":"passed"},"step":{"line":5,"prefix":"When","index":1,"text":"method GET"},"stepLog":"21:43:47.745 request:\n1 > GET https:\/\/reqres.in\/api\/users\/2\n1 > Host: reqres.in\n1 > Connection: Keep-Alive\n1 > User-Agent: Apache-HttpClient\/4.5.11 (Java\/17.0.9)\n1 > Accept-Encoding: gzip,deflate\n\n\n21:43:47.839 response time in milliseconds: 92\n1 < 200\n1 < Date: Thu, 15 Feb 2024 03:43:46 GMT\n1 < Content-Type: application\/json; charset=utf-8\n1 < Transfer-Encoding: chunked\n1 < Connection: keep-alive\n1 < Report-To: {\"group\":\"heroku-nel\",\"max_age\":3600,\"endpoints\":[{\"url\":\"https:\/\/nel.heroku.com\/reports?ts=1705447536&sid=c4c9725f-1ab0-44d8-820f-430df2718e11&s=nEgVXsxvbbic%2FpcpUBZdZjwRz7Qv6NDbK9yJ8Dv7vvs%3D\"}]}\n1 < Reporting-Endpoints: heroku-nel=https:\/\/nel.heroku.com\/reports?ts=1705447536&sid=c4c9725f-1ab0-44d8-820f-430df2718e11&s=nEgVXsxvbbic%2FpcpUBZdZjwRz7Qv6NDbK9yJ8Dv7vvs%3D\n1 < Nel: {\"report_to\":\"heroku-nel\",\"max_age\":3600,\"success_fraction\":0.005,\"failure_fraction\":0.05,\"response_headers\":[\"Via\"]}\n1 < X-Powered-By: Express\n1 < Access-Control-Allow-Origin: *\n1 < Etag: W\/\"118-pbdwwFo9SKNhD3Lx5iHJyngpq00\"\n1 < Via: 1.1 vegur\n1 < Cache-Control: max-age=14400\n1 < CF-Cache-Status: HIT\n1 < Age: 6371\n1 < Vary: Accept-Encoding\n1 < Server: cloudflare\n1 < CF-RAY: 855a8c6e09011ce8-ORD\n{\"data\":{\"id\":2,\"email\":\"janet.weaver@reqres.in\",\"first_name\":\"Janet\",\"last_name\":\"Weaver\",\"avatar\":\"https:\/\/reqres.in\/img\/faces\/2-image.jpg\"},\"support\":{\"url\":\"https:\/\/reqres.in\/#support-heading\",\"text\":\"To keep ReqRes free, contributions towards server costs are appreciated!\"}}\n\n"},{"result":{"nanos":11900,"startTime":1707968627840,"endTime":1707968627840,"millis":0.0119,"status":"passed"},"step":{"line":6,"prefix":"Then","index":2,"text":"status 200"}},{"result":{"nanos":1627600,"startTime":1707968627841,"endTime":1707968627843,"millis":1.6276,"status":"passed"},"step":{"line":7,"prefix":"*","index":3,"text":"match response.data.id == 2"}},{"result":{"nanos":960800,"startTime":1707968627842,"endTime":1707968627843,"millis":0.9608,"status":"passed"},"step":{"line":8,"prefix":"*","index":4,"text":"match response.data.email == 'janet.weaver@reqres.in'"}},{"result":{"nanos":26524300,"startTime":1707968627843,"endTime":1707968627870,"millis":26.5243,"status":"passed"},"step":{"comments":["#We are printing the Response of the API using the print keyword#"],"line":10,"prefix":"Then","index":5,"text":"print response"},"stepLog":"21:43:47.869 [print] {\n  \"data\": {\n    \"id\": 2,\n    \"email\": \"janet.weaver@reqres.in\",\n    \"first_name\": \"Janet\",\n    \"last_name\": \"Weaver\",\n    \"avatar\": \"https:\/\/reqres.in\/img\/faces\/2-image.jpg\"\n  },\n  \"support\": {\n    \"url\": \"https:\/\/reqres.in\/#support-heading\",\n    \"text\": \"To keep ReqRes free, contributions towards server costs are appreciated!\"\n  }\n}\n \n"}],"executorName":"main","line":2,"name":"testing the get one User Details","description":"","durationMillis":125.6343,"startTime":1707968627743,"failed":false,"refId":"[1:2]","endTime":1707968627869,"exampleIndex":-1},{"sectionIndex":1,"stepResults":[{"result":{"nanos":700700,"startTime":1707968627881,"endTime":1707968627882,"millis":0.7007,"status":"passed"},"step":{"line":13,"prefix":"Given","index":0,"text":"url 'https:\/\/reqres.in\/api\/users'"}},{"result":{"nanos":80090300,"startTime":1707968627882,"endTime":1707968627962,"millis":80.0903,"status":"passed"},"step":{"line":14,"prefix":"When","index":1,"text":"method GET"},"stepLog":"21:43:47.883 request:\n1 > GET https:\/\/reqres.in\/api\/users\n1 > Host: reqres.in\n1 > Connection: Keep-Alive\n1 > User-Agent: Apache-HttpClient\/4.5.11 (Java\/17.0.9)\n1 > Accept-Encoding: gzip,deflate\n\n\n21:43:47.960 response time in milliseconds: 75\n1 < 200\n1 < Date: Thu, 15 Feb 2024 03:43:47 GMT\n1 < Content-Type: application\/json; charset=utf-8\n1 < Transfer-Encoding: chunked\n1 < Connection: keep-alive\n1 < Report-To: {\"group\":\"heroku-nel\",\"max_age\":3600,\"endpoints\":[{\"url\":\"https:\/\/nel.heroku.com\/reports?ts=1707929298&sid=c4c9725f-1ab0-44d8-820f-430df2718e11&s=KUspm%2F1jT4NOkopf79HOHN96lct8JPb7kaiDZ48q%2BCE%3D\"}]}\n1 < Reporting-Endpoints: heroku-nel=https:\/\/nel.heroku.com\/reports?ts=1707929298&sid=c4c9725f-1ab0-44d8-820f-430df2718e11&s=KUspm%2F1jT4NOkopf79HOHN96lct8JPb7kaiDZ48q%2BCE%3D\n1 < Nel: {\"report_to\":\"heroku-nel\",\"max_age\":3600,\"success_fraction\":0.005,\"failure_fraction\":0.05,\"response_headers\":[\"Via\"]}\n1 < X-Powered-By: Express\n1 < Access-Control-Allow-Origin: *\n1 < Etag: W\/\"3e4-2RLXvr5wTg9YQ6aH95CkYoFNuO8\"\n1 < Via: 1.1 vegur\n1 < Cache-Control: max-age=14400\n1 < CF-Cache-Status: HIT\n1 < Age: 6897\n1 < Vary: Accept-Encoding\n1 < Server: cloudflare\n1 < CF-RAY: 855a8c6eda9a8720-ORD\n{\"page\":1,\"per_page\":6,\"total\":12,\"total_pages\":2,\"data\":[{\"id\":1,\"email\":\"george.bluth@reqres.in\",\"first_name\":\"George\",\"last_name\":\"Bluth\",\"avatar\":\"https:\/\/reqres.in\/img\/faces\/1-image.jpg\"},{\"id\":2,\"email\":\"janet.weaver@reqres.in\",\"first_name\":\"Janet\",\"last_name\":\"Weaver\",\"avatar\":\"https:\/\/reqres.in\/img\/faces\/2-image.jpg\"},{\"id\":3,\"email\":\"emma.wong@reqres.in\",\"first_name\":\"Emma\",\"last_name\":\"Wong\",\"avatar\":\"https:\/\/reqres.in\/img\/faces\/3-image.jpg\"},{\"id\":4,\"email\":\"eve.holt@reqres.in\",\"first_name\":\"Eve\",\"last_name\":\"Holt\",\"avatar\":\"https:\/\/reqres.in\/img\/faces\/4-image.jpg\"},{\"id\":5,\"email\":\"charles.morris@reqres.in\",\"first_name\":\"Charles\",\"last_name\":\"Morris\",\"avatar\":\"https:\/\/reqres.in\/img\/faces\/5-image.jpg\"},{\"id\":6,\"email\":\"tracey.ramos@reqres.in\",\"first_name\":\"Tracey\",\"last_name\":\"Ramos\",\"avatar\":\"https:\/\/reqres.in\/img\/faces\/6-image.jpg\"}],\"support\":{\"url\":\"https:\/\/reqres.in\/#support-heading\",\"text\":\"To keep ReqRes free, contributions towards server costs are appreciated!\"}}\n\n"},{"result":{"nanos":21300,"startTime":1707968627962,"endTime":1707968627962,"millis":0.0213,"status":"passed"},"step":{"line":15,"prefix":"Then","index":2,"text":"status 200"}},{"result":{"nanos":1601400,"startTime":1707968627962,"endTime":1707968627964,"millis":1.6014,"status":"passed"},"step":{"line":16,"prefix":"*","index":3,"text":"match response.per_page == 6"}},{"result":{"nanos":1329400,"startTime":1707968627964,"endTime":1707968627965,"millis":1.3294,"status":"passed"},"step":{"line":17,"prefix":"*","index":4,"text":"match response.data[0].id == 1"}},{"result":{"nanos":1318700,"startTime":1707968627965,"endTime":1707968627966,"millis":1.3187,"status":"passed"},"step":{"line":18,"prefix":"*","index":5,"text":"match response.data[0].email == \"george.bluth@reqres.in\""}},{"result":{"nanos":2778600,"startTime":1707968627966,"endTime":1707968627969,"millis":2.7786,"status":"passed"},"step":{"line":19,"prefix":"*","index":6,"text":"match response.data[*].id contains [1,2,3,4,5,6]"}},{"result":{"nanos":9672000,"startTime":1707968627969,"endTime":1707968627979,"millis":9.672,"status":"passed"},"step":{"comments":["#Reading the file ExpectedOutput.json and storing same response in variable expectedResult"],"line":22,"prefix":"Given","index":7,"text":"expectedResult=read('.\/users.json')"}},{"result":{"nanos":1232800,"startTime":1707968627979,"endTime":1707968627980,"millis":1.2328,"status":"passed"},"step":{"comments":["#Asserting the Actual Response with the Expected Response"],"line":24,"prefix":"And","index":8,"text":"match response == expectedResult"}}],"executorName":"main","line":12,"name":"testing the get ALL User Details","description":"","durationMillis":98.7452,"startTime":1707968627881,"failed":false,"refId":"[2:12]","endTime":1707968627980,"exampleIndex":-1}],"callDepth":0,"name":"fetching User Details","description":"","resultDate":"2024-02-14 09:43:47 PM","durationMillis":224.3795,"passedCount":2}